<?xml version="1.0" encoding="utf-8"?>
<!-- Generator: Adobe Illustrator 21.0.0, SVG Export Plug-In . SVG Version: 6.00 Build 0)  -->
<svg version="1.1" id="Layer_1" xmlns="http://www.w3.org/2000/svg" xmlns:xlink="http://www.w3.org/1999/xlink" x="0px" y="0px"
	 viewBox="0 0 135 19" style="enable-background:new 0 0 135 19;" xml:space="preserve">
<style type="text/css">
	.st0{fill:#FFFFFF;}
	.st1{fill:#EC1C24;}
	.st2{clip-path:url(#XMLID_2_);fill:#EC1C24;}
	.st3{clip-path:url(#XMLID_13_);fill:#EC1C24;}
</style>
<g>
	<rect id="XMLID_387_" x="33.1" y="0.6" class="st0" width="66" height="17.7"/>
	<g id="XMLID_371_">
		<path id="XMLID_384_" class="st1" d="M41.7,4.6l-1,1c-0.8-0.8-1.6-1.2-2.3-1.2c-0.5,0-0.9,0.2-1.3,0.5c-0.3,0.3-0.5,0.7-0.5,1.1
			c0,0.4,0.1,0.7,0.4,1.1c0.3,0.4,0.9,0.8,1.8,1.2c1.1,0.6,1.9,1.1,2.3,1.7c0.4,0.5,0.6,1.2,0.6,1.8c0,0.9-0.3,1.7-1,2.4
			s-1.5,1-2.5,1c-0.7,0-1.3-0.1-1.9-0.4c-0.6-0.3-1.1-0.7-1.5-1.2l0.9-1.1c0.8,0.9,1.6,1.3,2.4,1.3c0.6,0,1.1-0.2,1.5-0.6
			c0.4-0.4,0.6-0.8,0.6-1.4c0-0.4-0.1-0.8-0.4-1.1C39.6,10.4,39,10,38,9.5c-1.1-0.5-1.8-1.1-2.1-1.6c-0.4-0.5-0.6-1.1-0.6-1.8
			c0-0.9,0.3-1.6,0.9-2.2C36.8,3.3,37.5,3,38.5,3C39.5,3,40.6,3.5,41.7,4.6z"/>
		<path id="XMLID_382_" class="st1" d="M43.8,9.9V8.5c0.1-0.7,0.3-1.3,0.5-1.7c0.5-1.2,1.2-2.1,2-2.7c0.8-0.6,1.5-0.8,2.1-0.8
			c0.4,0,0.8,0.1,1.3,0.4l-0.8,1.2c-0.7-0.2-1.3,0-2,0.6c-0.6,0.6-1.1,1.3-1.3,2.1c-0.2,0.7-0.3,1.9-0.3,3.7v3.9h-1.5V9.9z"/>
		<path id="XMLID_379_" class="st1" d="M54.1,3.6C54.9,3.2,55.8,3,56.8,3c1.7,0,3.1,0.6,4.2,1.8c1.2,1.2,1.8,2.6,1.8,4.3
			c0,1.7-0.6,3.1-1.7,4.3c-1.2,1.2-2.6,1.8-4.2,1.8c-0.9,0-1.8-0.2-2.6-0.6c-0.8-0.4-1.5-1-2.1-1.7l-0.1,5.5h-1.4c0,0.3,0-2.6,0-10
			c0.1-1,0.5-2.1,1.1-3.1C52.5,4.5,53.3,4,54.1,3.6z M53.4,5.8c-0.9,0.9-1.3,2-1.3,3.4c0,0.9,0.2,1.7,0.6,2.4c0.4,0.7,1,1.3,1.7,1.7
			c0.7,0.4,1.5,0.6,2.3,0.6c0.8,0,1.6-0.2,2.3-0.6c0.7-0.4,1.3-1,1.7-1.7c0.4-0.8,0.6-1.5,0.6-2.4c0-0.8-0.2-1.6-0.6-2.4
			c-0.4-0.7-1-1.3-1.7-1.7c-0.7-0.4-1.5-0.6-2.3-0.6C55.4,4.5,54.3,4.9,53.4,5.8z"/>
		<path id="XMLID_377_" class="st1" d="M71.6,4.6l-1,1c-0.8-0.8-1.6-1.2-2.3-1.2c-0.5,0-0.9,0.2-1.3,0.5c-0.3,0.3-0.5,0.7-0.5,1.1
			c0,0.4,0.1,0.7,0.4,1.1c0.3,0.4,0.9,0.8,1.8,1.2c1.1,0.6,1.9,1.1,2.3,1.7c0.4,0.5,0.6,1.2,0.6,1.8c0,0.9-0.3,1.7-1,2.4
			c-0.7,0.7-1.5,1-2.5,1c-0.7,0-1.3-0.1-1.9-0.4c-0.6-0.3-1.1-0.7-1.5-1.2l0.9-1.1c0.8,0.9,1.6,1.3,2.4,1.3c0.6,0,1.1-0.2,1.5-0.6
			c0.4-0.4,0.6-0.8,0.6-1.4c0-0.4-0.1-0.8-0.4-1.1c-0.3-0.3-0.9-0.7-1.9-1.2c-1.1-0.5-1.8-1.1-2.1-1.6c-0.4-0.5-0.6-1.1-0.6-1.8
			c0-0.9,0.3-1.6,0.9-2.2C66.7,3.3,67.5,3,68.4,3C69.4,3,70.5,3.5,71.6,4.6z"/>
		<path id="XMLID_375_" class="st1" d="M74.2,0.6h1.5v7.7l5.4-4.7h2.2L78.4,8l5.2,7.2h-2.1L77,8.9l-1.2,1v5.2h-1.5V0.6z"/>
		<path id="XMLID_372_" class="st1" d="M90.7,3c1.8,0,3.3,0.6,4.4,1.9c1.1,1.2,1.6,2.6,1.6,4.2c0,4,0,6,0,6.1c-0.7,0-1.2,0-1.6,0
			c0,0,0-0.9,0-2.6c-0.8,1.5-2.3,2.4-4.5,2.6c-1.8,0-3.2-0.6-4.4-1.8s-1.7-2.6-1.7-4.2c0-1.6,0.5-3,1.6-4.2C87.4,3.6,88.9,3,90.7,3z
			 M90.7,4.5c-1.2,0-2.3,0.5-3.2,1.4c-0.9,0.9-1.3,2-1.3,3.3c0,0.8,0.2,1.6,0.7,2.4c0.5,0.8,1.2,1.4,2.3,2c2.7,0.6,4.7-0.6,5.8-3.7
			c0.1-1,0-1.9-0.3-2.8c-0.2-0.4-0.5-0.8-0.8-1.2C93,4.9,91.9,4.5,90.7,4.5z"/>
	</g>
	<g id="XMLID_370_">
		<path id="XMLID_3_" class="st0" d="M102.5,0.9c0.3,0,0.6,0.1,0.9,0.4c0.2,0.2,0.4,0.5,0.4,0.9s-0.1,0.6-0.4,0.9
			c-0.2,0.2-0.5,0.4-0.9,0.4c-0.3,0-0.6-0.1-0.9-0.4c-0.2-0.2-0.4-0.5-0.4-0.9s0.1-0.6,0.4-0.9C101.9,1,102.2,0.9,102.5,0.9z
			 M101.8,5.7h1.5v11.6h-1.5V5.7z"/>
		<path id="XMLID_6_" class="st0" d="M105.2,12.9l0-1.2c0-0.6,0-1.1,0.1-1.5c0.2-1.3,0.5-2.3,1-2.9c0.5-0.5,1-1,1.6-1.3
			c0.9-0.4,1.9-0.6,3-0.5c0.9,0,1.7,0.2,2.4,0.7c0.7,0.4,1.3,1,1.6,1.8c0.3,0.7,0.5,1.9,0.5,3.5v6h-1.5v-5.5c0-1.3-0.1-2.2-0.2-2.7
			c-0.2-0.8-0.5-1.3-1-1.6c-0.5-0.3-1.3-0.5-2.3-0.5c-0.9,0-1.7,0.3-2.4,0.8c-0.7,0.5-1,1.2-1,2.1c-0.1,0.6-0.2,1.6-0.2,3.2v4.3
			h-1.5V12.9z"/>
		<path id="XMLID_8_" class="st0" d="M121.7,2.8c-0.7-0.4-1.5-0.4-2.2-0.1c-0.6,0.3-1,1.3-1.2,2.8v1.2h2.8v1.3h-2.8v9.4h-1.5V5.2
			c0-0.9,0.2-1.7,0.6-2.3c0.6-1.2,1.5-1.8,2.7-1.8c0.6-0.1,1.3,0,2.1,0.5C122.1,1.8,121.9,2.3,121.7,2.8z"/>
		<path id="XMLID_10_" class="st0" d="M129,5.1c1.8,0,3.3,0.6,4.4,1.9c1.1,1.2,1.6,2.6,1.6,4.2c0,1.6-0.6,3-1.7,4.2
			c-1.1,1.2-2.6,1.8-4.4,1.8c-1.8,0-3.2-0.6-4.4-1.8c-1.1-1.2-1.7-2.6-1.7-4.2c0-1.6,0.5-3,1.6-4.2C125.7,5.7,127.2,5.1,129,5.1z
			 M129,6.6c-1.2,0-2.3,0.5-3.2,1.4c-0.9,0.9-1.3,2-1.3,3.3c0,0.8,0.2,1.6,0.6,2.4s1,1.3,1.6,1.7s1.4,0.6,2.3,0.6
			c0.8,0,1.6-0.2,2.3-0.6s1.2-1,1.6-1.7c0.4-0.7,0.6-1.5,0.6-2.4c0-1.3-0.4-2.4-1.3-3.3C131.3,7,130.2,6.6,129,6.6z"/>
	</g>
	<rect id="XMLID_54_" x="0.4" y="0.7" class="st0" width="27.1" height="17.9"/>
	<g id="XMLID_66_">
		<defs>
			<rect id="XMLID_47_" x="0.4" y="0.7" width="27.1" height="17.9"/>
		</defs>
		<clipPath id="XMLID_2_">
			<use xlink:href="#XMLID_47_"  style="overflow:visible;"/>
		</clipPath>
		<path id="XMLID_68_" class="st2" d="M16.1,5.3c0.7,0,0.9-0.5,0.9-1.1c0-0.6-0.3-1.1-0.9-1.1c-0.7,0-0.9,0.5-0.9,1.1
			C15.2,4.8,15.4,5.3,16.1,5.3 M16.1,3.6c0.2,0,0.3,0.2,0.3,0.6c0,0.4-0.1,0.6-0.3,0.6c-0.2,0-0.3-0.3-0.3-0.6
			C15.9,3.9,15.9,3.6,16.1,3.6 M14,3.7h0.1c0.1,0,0.2,0,0.2,0.2c0,0.2-0.1,0.2-0.2,0.2H14V3.7z M14.5,4.4C14.8,4.3,15,4.1,15,3.9
			c0-0.4-0.3-0.6-0.7-0.6h-0.9v2.1H14V4.6h0c0,0,0.1,0,0.1,0.1l0.3,0.7h0.7l-0.2-0.5C14.8,4.6,14.7,4.5,14.5,4.4L14.5,4.4z
			 M12.3,5.3c0.4,0,0.9-0.2,0.9-0.7V3.2h-0.6v1.4c0,0.2-0.1,0.3-0.2,0.3c-0.2,0-0.2-0.1-0.2-0.3V3.2h-0.6v1.4
			C11.4,5.1,11.8,5.3,12.3,5.3 M11.2,3.2H9.7v2.1h1.4l0.1-0.5h-0.8V4.5H11V4h-0.7V3.7h0.8V3.2z"/>
	</g>
	<polygon id="XMLID_46_" class="st1" points="16.8,3 17.3,1.6 19.6,4.5 20,2.5 20.6,4.6 25,2.8 23.3,6.7 25.7,7.7 24.1,9 25,11 
		23.3,11.2 24.8,15.1 22.6,13.5 21.4,17.8 22.7,14.8 27.2,18.3 24.3,12 26.7,12.2 25,9.1 26.6,7.5 24.5,6.1 27.2,0.9 21,3.6 
		20.2,1.1 19.2,3.4 17.3,1.2 16.5,2.5 9.7,2.2 16.6,3 	"/>
	<polygon id="XMLID_45_" class="st1" points="8.2,16 9.7,5.9 12.3,5.9 11.2,13.5 13,13.5 12.7,16 	"/>
	<polygon id="XMLID_44_" class="st1" points="13.2,16 14.6,5.9 17.1,5.9 15.7,16 	"/>
	<g id="XMLID_56_">
		<defs>
			<rect id="XMLID_38_" x="0.4" y="0.7" width="27.1" height="17.9"/>
		</defs>
		<clipPath id="XMLID_13_">
			<use xlink:href="#XMLID_38_"  style="overflow:visible;"/>
		</clipPath>
		<path id="XMLID_43_" class="st3" d="M21.9,8.5L21.9,8.5L22.3,6c-0.2-0.1-0.4-0.2-0.7-0.2c-0.2,0-0.4-0.1-0.7-0.1
			c-1.3,0-2.3,0.6-3.1,1.8c-0.8,1.2-1.2,2.7-1.2,4.7c0,1.2,0.3,2.2,0.8,2.8c0.5,0.7,1.2,1,2.2,1c0.3,0,0.5,0,0.7-0.1
			c0.2,0,0.4-0.1,0.5-0.2l0.4-2.4c-0.1,0-0.2,0.1-0.4,0.1c-0.2,0-0.3,0-0.4,0c-0.4,0-0.7-0.2-0.9-0.5c-0.2-0.3-0.3-0.8-0.3-1.5
			c0-1,0.2-1.9,0.5-2.5c0.3-0.6,0.8-0.9,1.3-0.9C21.7,8.3,21.9,8.5,21.9,8.5"/>
		<path id="XMLID_58_" class="st3" d="M4.8,7.2h0.1c0,0,0.1,0,0.2,0c0.3,0,0.6-0.1,0.8-0.4c0.2-0.3,0.3-0.5,0.3-1
			c0-0.4-0.1-0.7-0.2-0.9C5.8,4.9,5.5,4.7,5.2,4.7H5.1c0,0-0.1,0-0.1,0L4.8,7.2z M4.1,13h0.1h0.2c0.3,0,0.6-0.1,0.7-0.4
			c0.2-0.3,0.3-0.8,0.3-1.3c0-0.4,0-0.7-0.2-1C5.1,10,4.9,9.9,4.5,9.9H4.4L4.1,13z M0.9,16L2.6,1.7h2.7C6.5,1.7,7.5,2,8,2.5
			C8.7,3.1,8.9,3.9,8.9,5c0,0.9-0.2,1.7-0.6,2.3C8,7.9,7.4,8.3,6.7,8.5c0.6,0.2,1,0.5,1.3,1.1c0.3,0.5,0.4,1.1,0.4,1.9
			c0,0.7-0.1,1.3-0.3,1.9c-0.2,0.6-0.5,1.1-0.8,1.5c-0.3,0.4-0.7,0.7-1.2,0.8C5.6,16,4.9,16,4.1,16H0.9z"/>
	</g>
</g>
</svg>
